________________________________________________________________________________________________________

Name track: Toy Chaos 2
Lenght: 3388m
Type track: Sprint
Difficulty: medium
________________________________________________________________________________________________________
                                   
                                         CREDITS
________________________________________________________________________________________________________

- The ball model is taken from the track "Toy Universe" by Katte
https://www.revoltworld.net/dl/toyuniverse/
- The models of the plush rabbit and the pyramid of rings are taken from the track "Home 1" by G_J ☕, I_Spy
https://www.revoltworld.net/dl/home-1/

Thanks to rodik for correcting the textures of the models
